{
    "Sign in to Base": {
            "hi": "आधार में साइन इन करें",
            "pt": "Entrar na Base"
    },
    "Mobile number or email": {
        "hi": "मोबाइल नंबर या ईमेल",
        "pt": "Número de celular ou email"
    }
}